{
  "id": "14ac7874.eb5388",
  "type": "subflow",
  "name": "TripAdvisor",
  "info": "",
  "in": [
    {
      "x": 50,
      "y": 30,
      "wires": []
    }
  ],
  "out": [
    {
      "x": 160,
      "y": 30,
      "wires": [
        {
          "id": "14ac7874.eb5388",
          "port": 0
        }
      ]
    },
    {
      "x": 316.4285764694214,
      "y": 227.1428680419922,
      "wires": []
    }
  ],
  "flow": [
    {
      "id": "e5c9e344.1a362",
      "type": "inject",
      "z": "14ac7874.eb5388",
      "name": "",
      "topic": "",
      "payload": "",
      "payloadType": "date",
      "repeat": "",
      "crontab": "",
      "once": false,
      "x": 81,
      "y": 113,
      "wires": [
        []
      ]
    }
  ]
}