{
  "id": "2e04765b.d1fb8a",
  "type": "subflow",
  "name": "FourSquare",
  "info": "",
  "in": [
    {
      "x": 254.21427726745605,
      "y": 323.50000381469727,
      "wires": [
        {
          "id": "5709936c.a8f66c"
        }
      ]
    }
  ],
  "out": [
    {
      "x": 2105.5,
      "y": 279.5,
      "wires": [
        {
          "id": "2c5141e.fd3aebe",
          "port": 0
        }
      ]
    },
    {
      "x": 644.5,
      "y": 364.5,
      "wires": [
        {
          "id": "5709936c.a8f66c",
          "port": 1
        }
      ]
    }
  ],
  "flow": [
    {
      "id": "ef0be1e4.10f42",
      "type": "sqlarray",
      "z": "2e04765b.d1fb8a",
      "columns": "[]"
    },
    {
      "id": "b9b623bc.4649e",
      "type": "sqlarray",
      "z": "2e04765b.d1fb8a",
      "columns": "[\"network\",\"venue\"]"
    },
    {
      "id": "fd25755e.02da88",
      "type": "sqlarray",
      "z": "2e04765b.d1fb8a",
      "columns": "[\"created_at\"]"
    },
    {
      "id": "5709936c.a8f66c",
      "type": "function",
      "z": "2e04765b.d1fb8a",
      "name": "Prepare Credentials and ID",
      "func": "if (!msg.payload) {\n    return [null,msg];\n}\nmsg.creds = {\n    client_id : msg.payload.client_id,\n    client_secret : msg.payload.client_secret\n};\nmsg.info = {\n    venue : msg.venue,\n    id : msg.payload.venue_id\n};\nmsg.payload = {\n    venue : msg.venue,\n    network : 'foursquare'\n};\nreturn [msg,null];",
      "outputs": "2",
      "noerr": 0,
      "x": 450,
      "y": 323.5,
      "wires": [
        [
          "a6c7352f.5938c8"
        ],
        []
      ]
    },
    {
      "id": "a6c7352f.5938c8",
      "type": "SQL Select",
      "z": "2e04765b.d1fb8a",
      "sqldb": "bc0da4a3.43f258",
      "name": "Get last inserted tip",
      "table": "reviews",
      "limit": "1",
      "offset": "0",
      "columns": "fd25755e.02da88",
      "where": "b9b623bc.4649e",
      "group": "ef0be1e4.10f42",
      "order": "fd25755e.02da88",
      "orderdir": "DESC",
      "requireAll": 1,
      "noWhere": 0,
      "x": 711.5000305175781,
      "y": 304.07142639160156,
      "wires": [
        [
          "62a64580.9d59bc"
        ]
      ]
    },
    {
      "id": "62a64580.9d59bc",
      "type": "function",
      "z": "2e04765b.d1fb8a",
      "name": "Set Params",
      "func": "//Set how far go with the import\nmsg.lastTip =   (new Date(msg.payload.length\n                          ? msg.payload[0].created_at\n                          : '2015-10-01')\n                ).getTime()/1000;\n//Set the id of the venue to obtain\nmsg.payload = {\n    id : msg.info.id\n};\nreturn msg;",
      "outputs": 1,
      "noerr": 0,
      "x": 896.0000305175781,
      "y": 304.07142639160156,
      "wires": [
        [
          "9acce4a2.653318"
        ]
      ]
    },
    {
      "id": "9acce4a2.653318",
      "type": "Combine Start",
      "z": "2e04765b.d1fb8a",
      "name": "",
      "number": "2",
      "waitArray": 0,
      "x": 1064.2142162322998,
      "y": 303.49999809265137,
      "wires": [
        [
          "aa02d54c.55fd28",
          "1470e3bf.eb8f1c"
        ]
      ]
    },
    {
      "id": "aa02d54c.55fd28",
      "type": "Foursquare",
      "z": "2e04765b.d1fb8a",
      "name": "Get average rating",
      "resource": "venues/:id",
      "version": "2016-01-28",
      "creds": "4c35b6b6.b3ca48",
      "x": 1263.9285888671875,
      "y": 343.3571472167969,
      "wires": [
        [
          "150e0117.eaf1ff"
        ]
      ]
    },
    {
      "id": "150e0117.eaf1ff",
      "type": "subflow:de500688.21aff8",
      "z": "2e04765b.d1fb8a",
      "name": "",
      "x": 1509.714370727539,
      "y": 344.2857208251953,
      "wires": [
        [
          "2c5141e.fd3aebe"
        ]
      ]
    },
    {
      "id": "2c5141e.fd3aebe",
      "type": "Combine End",
      "z": "2e04765b.d1fb8a",
      "name": "",
      "saveOutput": false,
      "x": 1969.5,
      "y": 279.5,
      "wires": [
        []
      ]
    },
    {
      "id": "1470e3bf.eb8f1c",
      "type": "function",
      "z": "2e04765b.d1fb8a",
      "name": "Sorting",
      "func": "if (!msg.foursquareArgs) {\n    msg.foursquareArgs = {};\n}\nmsg.foursquareArgs.sort = 'recent';\nreturn msg;",
      "outputs": 1,
      "noerr": 0,
      "x": 1318.500015258789,
      "y": 285.5000009536743,
      "wires": [
        [
          "c683548a.397ca8"
        ]
      ]
    },
    {
      "id": "c683548a.397ca8",
      "type": "Foursquare",
      "z": "2e04765b.d1fb8a",
      "name": "Obtain tips",
      "resource": "venues/:id/tips",
      "version": "2016-01-28",
      "creds": "fc20860b.03df78",
      "x": 1467.5,
      "y": 285.5,
      "wires": [
        [
          "b585287a.4a7ad8"
        ]
      ]
    },
    {
      "id": "b585287a.4a7ad8",
      "type": "subflow:1f9724a7.e068db",
      "z": "2e04765b.d1fb8a",
      "name": "",
      "x": 1402.7857093811035,
      "y": 158.85713958740234,
      "wires": [
        [
          "2c5141e.fd3aebe"
        ],
        [
          "1470e3bf.eb8f1c"
        ],
        [
          "c7be760c.384188"
        ]
      ]
    },
    {
      "id": "c7be760c.384188",
      "type": "function",
      "z": "2e04765b.d1fb8a",
      "name": "TODO: Do something with the error",
      "func": "\nreturn msg;",
      "outputs": 1,
      "noerr": 0,
      "x": 1765.5,
      "y": 109.5,
      "wires": [
        [
          "2c5141e.fd3aebe"
        ]
      ]
    }
  ]
}