{
  "type": "tab",
  "id": "2e9e3561.d161ca",
  "label": "Importer Flow",
  "flow": [
    {
      "id": "25b282e9.da4d7e",
      "type": "sqlarray",
      "z": "2e9e3561.d161ca",
      "columns": "[]"
    },
    {
      "id": "a81ab5c5.57e548",
      "type": "inject",
      "z": "2e9e3561.d161ca",
      "name": "Starter",
      "topic": "",
      "payload": "",
      "payloadType": "date",
      "repeat": "300",
      "crontab": "",
      "once": true,
      "x": 125,
      "y": 186,
      "wires": [
        [
          "ca2c42b1.35d3c",
          "7abe436b.8541bc"
        ]
      ]
    },
    {
      "id": "ca2c42b1.35d3c",
      "type": "SQL Select",
      "z": "2e9e3561.d161ca",
      "sqldb": "4532268e.bacdd8",
      "name": "",
      "table": "venues",
      "limit": "0",
      "offset": "0",
      "columns": "25b282e9.da4d7e",
      "where": "25b282e9.da4d7e",
      "group": "25b282e9.da4d7e",
      "order": "25b282e9.da4d7e",
      "orderdir": "ASC",
      "requireAll": 0,
      "noWhere": 1,
      "x": 311.50000762939453,
      "y": 220.28571224212646,
      "wires": [
        [
          "a60bf00b.59f41"
        ]
      ]
    },
    {
      "id": "7abe436b.8541bc",
      "type": "template",
      "z": "2e9e3561.d161ca",
      "name": "",
      "field": "payload",
      "format": "handlebars",
      "template": "Started!",
      "x": 327,
      "y": 122,
      "wires": [
        [
          "dfb5c1ed.204a4"
        ]
      ]
    },
    {
      "id": "a60bf00b.59f41",
      "type": "Parallel Iterator",
      "z": "2e9e3561.d161ca",
      "name": "",
      "property": "payload",
      "saveOutput": 0,
      "recursive": 0,
      "storeId": 1,
      "x": 498.49999618530273,
      "y": 266.1428117752075,
      "wires": [
        [
          "74425198.8bbdb"
        ],
        [
          "f205526b.0dfab"
        ]
      ]
    },
    {
      "id": "dfb5c1ed.204a4",
      "type": "debug",
      "z": "2e9e3561.d161ca",
      "name": "",
      "active": true,
      "console": "false",
      "complete": "false",
      "x": 465.5,
      "y": 122,
      "wires": []
    },
    {
      "id": "74425198.8bbdb",
      "type": "function",
      "z": "2e9e3561.d161ca",
      "name": "Add param",
      "func": "msg.venue = msg.payload.id;\nreturn msg;",
      "outputs": 1,
      "noerr": 0,
      "x": 671,
      "y": 257,
      "wires": [
        [
          "551957a6.aae6a8"
        ]
      ]
    },
    {
      "id": "fab0d3d2.054f3",
      "type": "Combine End",
      "z": "2e9e3561.d161ca",
      "name": "Combine Networks",
      "saveOutput": 0,
      "x": 860,
      "y": 417,
      "wires": [
        [
          "a60bf00b.59f41"
        ]
      ]
    },
    {
      "id": "551957a6.aae6a8",
      "type": "Combine Start",
      "z": "2e9e3561.d161ca",
      "name": "",
      "number": "2",
      "waitArray": 0,
      "x": 845,
      "y": 257,
      "wires": [
        [
          "ba54d316.45ab3"
        ]
      ]
    },
    {
      "id": "1d4eb37b.e2b14d",
      "type": "subflow:3715d2.ffc8ea2e",
      "z": "2e9e3561.d161ca",
      "name": "",
      "x": 1242.0712928771973,
      "y": 235.9048662185669,
      "wires": [
        [
          "fab0d3d2.054f3"
        ],
        [
          "fab0d3d2.054f3"
        ]
      ]
    },
    {
      "id": "3d56b137.c2a94e",
      "type": "subflow:dd88151.f2277e8",
      "z": "2e9e3561.d161ca",
      "name": "",
      "x": 1240.8570442199707,
      "y": 280.1905698776245,
      "wires": [
        [
          "fab0d3d2.054f3",
          "dbb03432.244fc8"
        ],
        [
          "fab0d3d2.054f3",
          "80ad23fc.7f52e"
        ]
      ]
    },
    {
      "id": "ba54d316.45ab3",
      "type": "Input Split",
      "z": "2e9e3561.d161ca",
      "name": "Split Networks",
      "inputProps": [
        "payload.tripadvisor",
        "payload.foursquare"
      ],
      "outputs": 2,
      "x": 1033.5713539123535,
      "y": 257.04770517349243,
      "wires": [
        [
          "1d4eb37b.e2b14d"
        ],
        [
          "3d56b137.c2a94e",
          "91d524a.f6e2ad8"
        ]
      ]
    },
    {
      "id": "f205526b.0dfab",
      "type": "template",
      "z": "2e9e3561.d161ca",
      "name": "",
      "field": "payload",
      "format": "handlebars",
      "template": "Finished!",
      "x": 662,
      "y": 297,
      "wires": [
        [
          "7308d5a3.8cf72c"
        ]
      ]
    },
    {
      "id": "7308d5a3.8cf72c",
      "type": "debug",
      "z": "2e9e3561.d161ca",
      "name": "",
      "active": true,
      "console": "false",
      "complete": "false",
      "x": 800.5,
      "y": 297,
      "wires": []
    },
    {
      "id": "d559d8b5.2aa628",
      "type": "debug",
      "z": "2e9e3561.d161ca",
      "name": "",
      "active": true,
      "console": "false",
      "complete": "false",
      "x": 1634,
      "y": 205,
      "wires": []
    },
    {
      "id": "dbb03432.244fc8",
      "type": "template",
      "z": "2e9e3561.d161ca",
      "name": "",
      "field": "payload",
      "format": "handlebars",
      "template": "End foursquare (after processing)",
      "x": 1495.5,
      "y": 205,
      "wires": [
        [
          "d559d8b5.2aa628"
        ]
      ]
    },
    {
      "id": "344d72f4.cbb28e",
      "type": "debug",
      "z": "2e9e3561.d161ca",
      "name": "",
      "active": true,
      "console": "false",
      "complete": "false",
      "x": 1257,
      "y": 487,
      "wires": []
    },
    {
      "id": "91d524a.f6e2ad8",
      "type": "template",
      "z": "2e9e3561.d161ca",
      "name": "",
      "field": "payload",
      "format": "handlebars",
      "template": "Start foursquare",
      "x": 1118.5,
      "y": 487,
      "wires": [
        [
          "344d72f4.cbb28e"
        ]
      ]
    },
    {
      "id": "efa7633a.1058a",
      "type": "debug",
      "z": "2e9e3561.d161ca",
      "name": "",
      "active": true,
      "console": "false",
      "complete": "false",
      "x": 1636,
      "y": 333,
      "wires": []
    },
    {
      "id": "80ad23fc.7f52e",
      "type": "template",
      "z": "2e9e3561.d161ca",
      "name": "",
      "field": "payload",
      "format": "handlebars",
      "template": "End foursquare (no data)",
      "x": 1497.5,
      "y": 333,
      "wires": [
        [
          "efa7633a.1058a"
        ]
      ]
    }
  ]
}