{
  "id": "b32c20c2.4cd3e",
  "type": "subflow",
  "name": "Find Venue Id by Name , Location",
  "info": "",
  "in": [
    {
      "x": 35,
      "y": 100,
      "wires": [
        {
          "id": "5a12c24a.a5ed3c"
        }
      ]
    }
  ],
  "out": [
    {
      "x": 700,
      "y": 60,
      "wires": [
        {
          "id": "caa80126.3558",
          "port": 0
        }
      ]
    },
    {
      "x": 700,
      "y": 120,
      "wires": [
        {
          "id": "5a12c24a.a5ed3c",
          "port": 1
        },
        {
          "id": "caa80126.3558",
          "port": 1
        }
      ]
    }
  ],
  "flow": [
    {
      "id": "1e9542c4.e16abd",
      "type": "sqlarray",
      "z": "b32c20c2.4cd3e",
      "columns": "[\"name\",\"location\"]"
    },
    {
      "id": "178391f8.e87c6e",
      "type": "sqlarray",
      "z": "b32c20c2.4cd3e",
      "columns": "[\"id\"]"
    },
    {
      "id": "37eaf182.c8150e",
      "type": "sqlarray",
      "z": "b32c20c2.4cd3e",
      "columns": "[]"
    },
    {
      "id": "5a12c24a.a5ed3c",
      "type": "function",
      "z": "b32c20c2.4cd3e",
      "name": "Check input",
      "func": "if (typeof msg.payload.venue === 'string') {\n    var venueInfo = msg.payload.venue.split(',').map(Function.prototype.call, String.prototype.trim);\n    msg._oldPayload = msg.payload;\n    msg.payload = {\n        name : venueInfo[0]\n    };\n    if (venueInfo[1]) {\n        msg.payload.location = venueInfo[1];\n    }\n    return [msg,null];\n}\nreturn [null,msg]\n",
      "outputs": "2",
      "noerr": 0,
      "x": 165,
      "y": 100,
      "wires": [
        [
          "2e1d7407.d1e28c"
        ],
        []
      ]
    },
    {
      "id": "2e1d7407.d1e28c",
      "type": "SQL Select",
      "z": "b32c20c2.4cd3e",
      "sqldb": "e5955362.1a6ab",
      "name": "",
      "table": "venues",
      "limit": "0",
      "offset": "0",
      "columns": "178391f8.e87c6e",
      "where": "1e9542c4.e16abd",
      "group": "37eaf182.c8150e",
      "order": "37eaf182.c8150e",
      "orderdir": "ASC",
      "requireAll": 0,
      "x": 360.5,
      "y": 80,
      "wires": [
        [
          "caa80126.3558"
        ]
      ]
    },
    {
      "id": "caa80126.3558",
      "type": "function",
      "z": "b32c20c2.4cd3e",
      "name": "Check output",
      "func": "if (msg.payload.length === 1) {\n    var id = msg.payload[0].id;\n    msg.payload = msg._oldPayload;\n    msg.payload.venue = id;\n    return [msg,null];\n}\nreturn [null,msg];",
      "outputs": "2",
      "noerr": 0,
      "x": 570,
      "y": 80,
      "wires": [
        [],
        []
      ]
    }
  ]
}