{
  "id": "dbee470a.2411b8",
  "type": "subflow",
  "name": "TripAdvisor",
  "info": "",
  "in": [
    {
      "x": 50,
      "y": 30,
      "wires": []
    }
  ],
  "out": [
    {
      "x": 160,
      "y": 30,
      "wires": [
        {
          "id": "dbee470a.2411b8",
          "port": 0
        }
      ]
    },
    {
      "x": 316.4285764694214,
      "y": 227.1428680419922,
      "wires": []
    }
  ]
}