{
  "id": "fef5b123.010a5",
  "type": "subflow",
  "name": "Insert/Update Rating if different",
  "info": "",
  "in": [
    {
      "x": 101,
      "y": 119,
      "wires": [
        {
          "id": "b3ae114.f4c51f"
        }
      ]
    }
  ],
  "out": [
    {
      "x": 1191.3333940505981,
      "y": 43,
      "wires": [
        {
          "id": "ee80471e.117fb8",
          "port": 0
        },
        {
          "id": "4fb26247.b04d9c",
          "port": 0
        },
        {
          "id": "88e28645.771d78",
          "port": 0
        },
        {
          "id": "b3ae114.f4c51f",
          "port": 0
        }
      ]
    }
  ],
  "flow": [
    {
      "id": "679fe119.98602",
      "type": "sqlarray",
      "z": "fef5b123.010a5",
      "columns": "[\"rating\"]"
    },
    {
      "id": "ff4ea422.00b158",
      "type": "sqlarray",
      "z": "fef5b123.010a5",
      "columns": "[\"date\"]"
    },
    {
      "id": "15a1b59a.ea5e4a",
      "type": "sqlarray",
      "z": "fef5b123.010a5",
      "columns": "[]"
    },
    {
      "id": "4aea405d.b515c",
      "type": "sqlarray",
      "z": "fef5b123.010a5",
      "columns": "[\"date\",\"rating\",\"venue\",\"network\"]"
    },
    {
      "id": "f12fc074.0ed04",
      "type": "sqlwhere",
      "z": "fef5b123.010a5",
      "clause": "{\n  \"condition\": \"AND\",\n  \"rules\": [\n    {\n      \"id\": \"network\",\n      \"field\": \"network\",\n      \"type\": \"string\",\n      \"input\": \"checkbox\",\n      \"operator\": \"equal\",\n      \"value\": [\n        \"foursquare\"\n      ],\n      \"data\": {\n        \"type\": [],\n        \"raw\": []\n      }\n    },\n    {\n      \"id\": \"venue\",\n      \"field\": \"venue\",\n      \"type\": \"integer\",\n      \"input\": \"text\",\n      \"operator\": \"equal\",\n      \"value\": \"payload.venue\",\n      \"data\": {\n        \"type\": [\n          \"msg\"\n        ],\n        \"raw\": [\n          \"payload.venue\"\n        ]\n      }\n    }\n  ]\n}"
    },
    {
      "id": "951f71a4.6ae09",
      "type": "sqlwhere",
      "z": "fef5b123.010a5",
      "clause": "{\n  \"condition\": \"AND\",\n  \"rules\": [\n    {\n      \"id\": \"network\",\n      \"field\": \"network\",\n      \"type\": \"string\",\n      \"input\": \"checkbox\",\n      \"operator\": \"equal\",\n      \"value\": [\n        \"tripadvisor\"\n      ],\n      \"data\": {\n        \"type\": [],\n        \"raw\": []\n      }\n    },\n    {\n      \"id\": \"venue\",\n      \"field\": \"venue\",\n      \"type\": \"integer\",\n      \"input\": \"text\",\n      \"operator\": \"equal\",\n      \"value\": \"paylaod.venue\",\n      \"data\": {\n        \"type\": [\n          \"msg\"\n        ],\n        \"raw\": [\n          \"paylaod.venue\"\n        ]\n      }\n    },\n    {\n      \"id\": \"date\",\n      \"field\": \"date\",\n      \"type\": \"date\",\n      \"input\": \"text\",\n      \"operator\": \"equal\",\n      \"value\": \"payload.date\",\n      \"data\": {\n        \"type\": [\n          \"msg\"\n        ],\n        \"raw\": [\n          \"payload.date\"\n        ]\n      }\n    }\n  ]\n}"
    },
    {
      "id": "71993a4.f8e66c4",
      "type": "SQL Select",
      "z": "fef5b123.010a5",
      "sqldb": "e5955362.1a6ab",
      "name": "",
      "table": "review_avgs",
      "limit": "1",
      "offset": "0",
      "columns": "4aea405d.b515c",
      "where": "f12fc074.0ed04",
      "group": "15a1b59a.ea5e4a",
      "order": "ff4ea422.00b158",
      "orderdir": "DESC",
      "requireAll": null,
      "x": 587.0000076293945,
      "y": 138.3333387374878,
      "wires": [
        [
          "ee80471e.117fb8"
        ]
      ]
    },
    {
      "id": "b3ae114.f4c51f",
      "type": "function",
      "z": "fef5b123.010a5",
      "name": "Check response from foursquare",
      "func": "if (msg.payload.meta && msg.payload.meta.code === 200 && msg.payload.response.venue) {\n    msg.venueData = {\n        rating : msg.payload.response.venue.rating,\n        venue : msg.info.venue,\n        network : 'foursquare'\n    };\n    msg.payload = {\n        venue : msg.info.venue\n    }\n    return [null,msg];\n    \n}\nreturn [msg,null];",
      "outputs": "2",
      "noerr": 0,
      "x": 317.5,
      "y": 118,
      "wires": [
        [],
        [
          "71993a4.f8e66c4"
        ]
      ]
    },
    {
      "id": "ee80471e.117fb8",
      "type": "function",
      "z": "fef5b123.010a5",
      "name": "Check DB data",
      "func": "var today = (new Date()).toJSON().slice(0,10);\n//Check the results from the DB\nif (Array.isArray(msg.payload) && msg.payload.length) {\n    var lastRating = msg.payload[0];\n    //Check if the rating is changed\n    if (lastRating.rating !== msg.venueData.rating) {\n        //Check the date in the DB\n        var field_date = (new Date(lastRating.date)).toJSON().slice(0,10);\n        //If the record on the DB is from today update it with the new value\n        if (field_date === today) {\n            msg.payload = {\n                rating : msg.venueData.rating\n            };\n            msg.where = {\n                venue : msg.venueData.venue,\n                date : lastRating.date\n            };\n            return [null,msg,null];\n        }\n    } else {\n        //If the rating isn't changed, Do nothing\n        msg.payload = false;\n        return [msg,null,null];\n    }\n}\n//In case there's no data on the DB or the rating is changed but isn't of today, insert a new row in the DB\nmsg.payload = {\n    rating : msg.venueData.rating,\n    venue : msg.venueData.venue,\n    network : msg.venueData.network,\n    date : today\n};\nreturn [null,null,msg];\n",
      "outputs": "3",
      "noerr": 0,
      "x": 806.0000076293945,
      "y": 132.3333387374878,
      "wires": [
        [],
        [
          "4fb26247.b04d9c"
        ],
        [
          "88e28645.771d78"
        ]
      ]
    },
    {
      "id": "4fb26247.b04d9c",
      "type": "SQL Update",
      "z": "fef5b123.010a5",
      "sqldb": "e5955362.1a6ab",
      "name": "",
      "table": "review_avgs",
      "columns": "679fe119.98602",
      "where": "951f71a4.6ae09",
      "requireAll": 1,
      "requireAllWhere": null,
      "x": 1038.0000076293945,
      "y": 145.3333387374878,
      "wires": [
        []
      ]
    },
    {
      "id": "88e28645.771d78",
      "type": "SQL Insert",
      "z": "fef5b123.010a5",
      "sqldb": "e5955362.1a6ab",
      "name": "",
      "table": "review_avgs",
      "columns": "4aea405d.b515c",
      "requireAll": 1,
      "x": 1032.0000076293945,
      "y": 184.3333387374878,
      "wires": [
        []
      ]
    },
    {
      "id": "c4a480e4.3b5b8",
      "type": "debug",
      "z": "fef5b123.010a5",
      "name": "",
      "active": true,
      "console": "false",
      "complete": "true",
      "x": 1278,
      "y": 113,
      "wires": []
    }
  ]
}